simWorkspace/RegFile/test.vcd
$version Generated by VerilatedVcd $end
$date Tue May 26 00:20:42 2020
 $end
$timescale   1ns $end

 $scope module TOP $end
  $var wire  1 ?& clk $end
  $var wire  5 M% io_regio_raddr1 [4:0] $end
  $var wire  5 U% io_regio_raddr2 [4:0] $end
  $var wire 64 }% io_regio_rdata1 [63:0] $end
  $var wire 64 /& io_regio_rdata2 [63:0] $end
  $var wire  5 ]% io_regio_waddr [4:0] $end
  $var wire 64 e% io_regio_wdata [63:0] $end
  $var wire  1 u% io_regio_wen $end
  $var wire  1 G& reset $end
  $scope module RegFile $end
   $var wire  1 ?& clk $end
   $var wire  5 M% io_regio_raddr1 [4:0] $end
   $var wire  5 U% io_regio_raddr2 [4:0] $end
   $var wire 64 }% io_regio_rdata1 [63:0] $end
   $var wire 64 /& io_regio_rdata2 [63:0] $end
   $var wire  5 ]% io_regio_waddr [4:0] $end
   $var wire 64 e% io_regio_wdata [63:0] $end
   $var wire  1 u% io_regio_wen $end
   $var wire 64 # mem(0) [63:0] $end
   $var wire 64 % mem(1) [63:0] $end
   $var wire 64 7 mem(10) [63:0] $end
   $var wire 64 9 mem(11) [63:0] $end
   $var wire 64 ; mem(12) [63:0] $end
   $var wire 64 = mem(13) [63:0] $end
   $var wire 64 ? mem(14) [63:0] $end
   $var wire 64 A mem(15) [63:0] $end
   $var wire 64 C mem(16) [63:0] $end
   $var wire 64 E mem(17) [63:0] $end
   $var wire 64 G mem(18) [63:0] $end
   $var wire 64 I mem(19) [63:0] $end
   $var wire 64 ' mem(2) [63:0] $end
   $var wire 64 K mem(20) [63:0] $end
   $var wire 64 M mem(21) [63:0] $end
   $var wire 64 O mem(22) [63:0] $end
   $var wire 64 Q mem(23) [63:0] $end
   $var wire 64 S mem(24) [63:0] $end
   $var wire 64 U mem(25) [63:0] $end
   $var wire 64 W mem(26) [63:0] $end
   $var wire 64 Y mem(27) [63:0] $end
   $var wire 64 [ mem(28) [63:0] $end
   $var wire 64 ] mem(29) [63:0] $end
   $var wire 64 ) mem(3) [63:0] $end
   $var wire 64 _ mem(30) [63:0] $end
   $var wire 64 a mem(31) [63:0] $end
   $var wire 64 + mem(4) [63:0] $end
   $var wire 64 - mem(5) [63:0] $end
   $var wire 64 / mem(6) [63:0] $end
   $var wire 64 1 mem(7) [63:0] $end
   $var wire 64 3 mem(8) [63:0] $end
   $var wire 64 5 mem(9) [63:0] $end
   $var wire  1 G& reset $end
  $upscope $end
 $upscope $end
$enddefinitions $end


#0
b0011111001111101000111011100010110110100011011101110011111111010 #
b0100101001011011000100110000110001011011101001110000000011101101 %
b0101100110100010000011010000111100111100100000100001100100110000 '
b0011001101000101101101111100001111000011101000110011100110101011 )
b1001101100101010111111111000101110111101000010101110011110110000 +
b0100011110101011001001010101011101101101111101010010010110110010 -
b1001111100111101001110110010100111111110101000001011111101111001 /
b0100111010001110111110011011110110100010111011010110111110100111 1
b0000010000101001111010010111011001010001010111110001111110010111 3
b0000011110011101000111011001100100011000110100011101011100000110 5
b1010011011011100111011111111111100101011111111010011011011100110 7
b1101001100110111000111010111000111110110101101011001101110010000 9
b1001001111111011101001100001000010100111111111001100111000100011 ;
b1100011001000110010101111111011101101100010010010110100001010010 =
b0011011001010100000100100111100011000010101111001100101110001010 ?
b1110100001100010110101011011100100111111000101100010000000101110 A
b1001100101110101011101001011000110000011111010100100111011110101 C
b0111001000111110111010010111100100111111101000001001100111111100 E
b0001110111111101111011000100101000110100010010001100000011011010 G
b1000101000011111110111000011000010101000101010000100100000000000 I
b0011111001110111000110011010010011001101000010100111110101011010 K
b0101001010011110011011001110000100101010000010100001011101011100 M
b1111011011011100011110100111001110001011010110001101011110101110 O
b0110100101111111011000011010011010101101011010111011110001110000 Q
b1110000110101100000011100100000100110000111010101100010110001000 S
b0001000101001010100011100100010111010011100011101001010000000100 U
b0101101000100011001100101000011100011110100100010001111011011101 W
b1011111110110000001100111110111110011101000110111001010010001001 Y
b1010011100000110001100001100011010001000011010111111101000010000 [
b0000101011001100001011000111110000011110111101101000100001000100 ]
b0110010101010001010100010001011111110010111000100101111100110111 _
b1111010100110101011101010100001000010101010111101000100011010010 a
b00100 M%
b00010 U%
b10001 ]%
b0011000111001110111110110001011110011011110010011111101110110001 e%
1u%
b1001101100101010111111111000101110111101000010101110011110110000 }%
b0101100110100010000011010000111100111100100000100001100100110000 /&
0?&
1G&
#160
0G&
#170
b0011000111001110111110110001011110011011110010011111101110110001 E
1?&
#175
0?&
#180
b00000 ]%
b0000000000000000000000000000000000001110001111010011010001000101 e%
1?&
#185
0?&
#190
b0000000000000000000000000000000000001110001111010011010001000101 #
0u%
1?&
#195
0?&
#200
b00001 ]%
b0000000000000000000000000000000000000100100100101011110101011100 e%
1u%
1?&
#205
0?&
#210
b0000000000000000000000000000000000000100100100101011110101011100 %
0u%
1?&
#215
0?&
#220
b00010 ]%
b0000000000000000000000000000000000001110111111110111100100101011 e%
1u%
1?&
#225
0?&
#230
b0000000000000000000000000000000000001110111111110111100100101011 '
0u%
b0000000000000000000000000000000000001110111111110111100100101011 /&
1?&
#235
0?&
#240
b00011 ]%
b0000000000000000000000000000000000000111111100000101100101101010 e%
1u%
1?&
#245
0?&
#250
b0000000000000000000000000000000000000111111100000101100101101010 )
0u%
1?&
#255
0?&
#260
b00100 ]%
b0000000000000000000000000000000000000001110001110110100001100001 e%
1u%
1?&
#265
0?&
#270
b0000000000000000000000000000000000000001110001110110100001100001 +
0u%
b0000000000000000000000000000000000000001110001110110100001100001 }%
1?&
#275
0?&
#280
b00101 ]%
b0000000000000000000000000000000000001001101010110000010100011011 e%
1u%
1?&
#285
0?&
#290
b0000000000000000000000000000000000001001101010110000010100011011 -
0u%
1?&
#295
0?&
#300
b00110 ]%
b0000000000000000000000000000000000000111111001000001011010100111 e%
1u%
1?&
#305
0?&
#310
b0000000000000000000000000000000000000111111001000001011010100111 /
0u%
1?&
#315
0?&
#320
b00111 ]%
b0000000000000000000000000000000000000010011010101101011110001101 e%
1u%
1?&
#325
0?&
#330
b0000000000000000000000000000000000000010011010101101011110001101 1
0u%
1?&
#335
0?&
#340
b01000 ]%
b0000000000000000000000000000000000000001111010000101010101001101 e%
1u%
1?&
#345
0?&
#350
b0000000000000000000000000000000000000001111010000101010101001101 3
0u%
1?&
#355
0?&
#360
b01001 ]%
b0000000000000000000000000000000000001110001100000001110011010000 e%
1u%
1?&
#365
0?&
#370
b0000000000000000000000000000000000001110001100000001110011010000 5
0u%
1?&
#375
0?&
#380
b01010 ]%
b0000000000000000000000000000000000001110011100011101000110110101 e%
1u%
1?&
#385
0?&
#390
b0000000000000000000000000000000000001110011100011101000110110101 7
0u%
1?&
#395
0?&
#400
b01011 ]%
b0000000000000000000000000000000000000111100011010100111101011010 e%
1u%
1?&
#405
0?&
#410
b0000000000000000000000000000000000000111100011010100111101011010 9
0u%
1?&
#415
0?&
#420
b01100 ]%
b0000000000000000000000000000000000001111111010000101100001001100 e%
1u%
1?&
#425
0?&
#430
b0000000000000000000000000000000000001111111010000101100001001100 ;
0u%
1?&
#435
0?&
#440
b01101 ]%
b0000000000000000000000000000000000001011010010100011100001100111 e%
1u%
1?&
#445
0?&
#450
b0000000000000000000000000000000000001011010010100011100001100111 =
0u%
1?&
#455
0?&
#460
b01110 ]%
b0000000000000000000000000000000000000010010100011000110000110100 e%
1u%
1?&
#465
0?&
#470
b0000000000000000000000000000000000000010010100011000110000110100 ?
0u%
1?&
#475
0?&
#480
b01111 ]%
b0000000000000000000000000000000000001010110111101011101100111100 e%
1u%
1?&
#485
0?&
#490
b0000000000000000000000000000000000001010110111101011101100111100 A
0u%
1?&
#495
0?&
#500
b10000 ]%
b0000000000000000000000000000000000001010100010101101111110010100 e%
1u%
1?&
#505
0?&
#510
b0000000000000000000000000000000000001010100010101101111110010100 C
0u%
1?&
#515
0?&
#520
b10001 ]%
b0000000000000000000000000000000000000101101111100101011111100011 e%
1u%
1?&
#525
0?&
#530
b0000000000000000000000000000000000000101101111100101011111100011 E
0u%
1?&
#535
0?&
#540
b10010 ]%
b0000000000000000000000000000000000000000111010101011101100101111 e%
1u%
1?&
#545
0?&
#550
b0000000000000000000000000000000000000000111010101011101100101111 G
0u%
1?&
#555
0?&
#560
b10011 ]%
b0000000000000000000000000000000000001000100110101111000010101000 e%
1u%
1?&
#565
0?&
#570
b0000000000000000000000000000000000001000100110101111000010101000 I
0u%
1?&
#575
0?&
#580
b10100 ]%
b0000000000000000000000000000000000001100011110010011011001100101 e%
1u%
1?&
#585
0?&
#590
b0000000000000000000000000000000000001100011110010011011001100101 K
0u%
1?&
#595
0?&
#600
b10101 ]%
b0000000000000000000000000000000000000110010110110101100000001010 e%
1u%
1?&
#605
0?&
#610
b0000000000000000000000000000000000000110010110110101100000001010 M
0u%
1?&
#615
0?&
#620
b10110 ]%
b0000000000000000000000000000000000001000111010110110111010110000 e%
1u%
1?&
#625
0?&
#630
b0000000000000000000000000000000000001000111010110110111010110000 O
0u%
1?&
#635
0?&
#640
b10111 ]%
b0000000000000000000000000000000000000111110101010110110101111000 e%
1u%
1?&
#645
0?&
#650
b0000000000000000000000000000000000000111110101010110110101111000 Q
0u%
1?&
#655
0?&
#660
b11000 ]%
b0000000000000000000000000000000000000011000110111001101011011111 e%
1u%
1?&
#665
0?&
#670
b0000000000000000000000000000000000000011000110111001101011011111 S
0u%
1?&
#675
0?&
#680
b11001 ]%
b0000000000000000000000000000000000001111000000100001110001010110 e%
1u%
1?&
#685
0?&
#690
b0000000000000000000000000000000000001111000000100001110001010110 U
0u%
1?&
#695
0?&
#700
b11010 ]%
b0000000000000000000000000000000000001101111011001100110000001000 e%
1u%
1?&
#705
0?&
#710
b0000000000000000000000000000000000001101111011001100110000001000 W
0u%
1?&
#715
0?&
#720
b11011 ]%
b0000000000000000000000000000000000000011001101001011001010110100 e%
1u%
1?&
#725
0?&
#730
b0000000000000000000000000000000000000011001101001011001010110100 Y
0u%
1?&
#735
0?&
#740
b11100 ]%
b0000000000000000000000000000000000001001100101111001011110100001 e%
1u%
1?&
#745
0?&
#750
b0000000000000000000000000000000000001001100101111001011110100001 [
0u%
1?&
#755
0?&
#760
b11101 ]%
b0000000000000000000000000000000000000101110011010100001111010000 e%
1u%
1?&
#765
0?&
#770
b0000000000000000000000000000000000000101110011010100001111010000 ]
0u%
1?&
#775
0?&
#780
b11110 ]%
b0000000000000000000000000000000000000000000001001000010011110011 e%
1u%
1?&
#785
0?&
#790
b0000000000000000000000000000000000000000000001001000010011110011 _
0u%
1?&
#795
0?&
#800
b11111 ]%
b0000000000000000000000000000000000001100000011001111000000001001 e%
1u%
1?&
#805
0?&
#810
b0000000000000000000000000000000000001100000011001111000000001001 a
0u%
1?&
#815
0?&
#820
b00000 M%
b0000000000000000000000000000000000000000000000000000000000000000 }%
1?&
#825
0?&
#830
1?&
#835
0?&
#840
b00001 M%
b0000000000000000000000000000000000000100100100101011110101011100 }%
1?&
#845
0?&
#850
1?&
#855
0?&
#860
b00010 M%
b0000000000000000000000000000000000001110111111110111100100101011 }%
1?&
#865
0?&
#870
1?&
#875
0?&
#880
b00011 M%
b0000000000000000000000000000000000000111111100000101100101101010 }%
1?&
#885
0?&
#890
1?&
#895
0?&
#900
b00100 M%
b0000000000000000000000000000000000000001110001110110100001100001 }%
1?&
#905
0?&
#910
1?&
#915
0?&
#920
b00101 M%
b0000000000000000000000000000000000001001101010110000010100011011 }%
1?&
#925
0?&
#930
1?&
#935
0?&
#940
b00110 M%
b0000000000000000000000000000000000000111111001000001011010100111 }%
1?&
#945
0?&
#950
1?&
#955
0?&
#960
b00111 M%
b0000000000000000000000000000000000000010011010101101011110001101 }%
1?&
#965
0?&
#970
1?&
#975
0?&
#980
b01000 M%
b0000000000000000000000000000000000000001111010000101010101001101 }%
1?&
#985
0?&
#990
1?&
#995
0?&
#1000
b01001 M%
b0000000000000000000000000000000000001110001100000001110011010000 }%
1?&
#1005
0?&
#1010
1?&
#1015
0?&
#1020
b01010 M%
b0000000000000000000000000000000000001110011100011101000110110101 }%
1?&
#1025
0?&
#1030
1?&
#1035
0?&
#1040
b01011 M%
b0000000000000000000000000000000000000111100011010100111101011010 }%
1?&
#1045
0?&
#1050
1?&
#1055
0?&
#1060
b01100 M%
b0000000000000000000000000000000000001111111010000101100001001100 }%
1?&
#1065
0?&
#1070
1?&
#1075
0?&
#1080
b01101 M%
b0000000000000000000000000000000000001011010010100011100001100111 }%
1?&
#1085
0?&
#1090
1?&
#1095
0?&
#1100
b01110 M%
b0000000000000000000000000000000000000010010100011000110000110100 }%
1?&
#1105
0?&
#1110
1?&
#1115
0?&
#1120
b01111 M%
b0000000000000000000000000000000000001010110111101011101100111100 }%
1?&
#1125
0?&
#1130
1?&
#1135
0?&
#1140
b10000 M%
b0000000000000000000000000000000000001010100010101101111110010100 }%
1?&
#1145
0?&
#1150
1?&
#1155
0?&
#1160
b10001 M%
b0000000000000000000000000000000000000101101111100101011111100011 }%
1?&
#1165
0?&
#1170
1?&
#1175
0?&
#1180
b10010 M%
b0000000000000000000000000000000000000000111010101011101100101111 }%
1?&
#1185
0?&
#1190
1?&
#1195
0?&
#1200
b10011 M%
b0000000000000000000000000000000000001000100110101111000010101000 }%
1?&
#1205
0?&
#1210
1?&
#1215
0?&
#1220
b10100 M%
b0000000000000000000000000000000000001100011110010011011001100101 }%
1?&
#1225
0?&
#1230
1?&
#1235
0?&
#1240
b10101 M%
b0000000000000000000000000000000000000110010110110101100000001010 }%
1?&
#1245
0?&
#1250
1?&
#1255
0?&
#1260
b10110 M%
b0000000000000000000000000000000000001000111010110110111010110000 }%
1?&
#1265
0?&
#1270
1?&
#1275
0?&
#1280
b10111 M%
b0000000000000000000000000000000000000111110101010110110101111000 }%
1?&
#1285
0?&
#1290
1?&
#1295
0?&
#1300
b11000 M%
b0000000000000000000000000000000000000011000110111001101011011111 }%
1?&
#1305
0?&
#1310
1?&
#1315
0?&
#1320
b11001 M%
b0000000000000000000000000000000000001111000000100001110001010110 }%
1?&
#1325
0?&
#1330
1?&
#1335
0?&
#1340
b11010 M%
b0000000000000000000000000000000000001101111011001100110000001000 }%
1?&
#1345
0?&
#1350
1?&
#1355
0?&
#1360
b11011 M%
b0000000000000000000000000000000000000011001101001011001010110100 }%
1?&
#1365
0?&
#1370
1?&
#1375
0?&
#1380
b11100 M%
b0000000000000000000000000000000000001001100101111001011110100001 }%
1?&
#1385
0?&
#1390
1?&
#1395
0?&
#1400
b11101 M%
b0000000000000000000000000000000000000101110011010100001111010000 }%
1?&
#1405
0?&
#1410
1?&
#1415
0?&
#1420
b11110 M%
b0000000000000000000000000000000000000000000001001000010011110011 }%
1?&
#1425
0?&
#1430
1?&
#1435
0?&
#1440
b11111 M%
b0000000000000000000000000000000000001100000011001111000000001001 }%
1?&
