test_run_dir/CODTest_should_pass_cache_test/Cache.vcd
$date
2021-02-14T11:41+0000
$end
$version
0.2
$end
$comment

$end
$timescale 1ns  $end
$scope module Cache $end
 $var wire 32 # _GEN_103 $end
 $var wire 1 ' io_cacheReq_ready $end
 $var wire 1 * io_cacheResp_ready $end
 $var wire 3 . _GEN_93 $end
 $var wire 3 / _GEN_87 $end
 $var wire 128 0 _GEN_2 $end
 $var wire 1 1 _GEN_10 $end
 $var wire 1 3 _T $end
 $var wire 32 6 reqReg_data $end
 $var wire 1 ; tags_valid $end
 $var wire 32 < io_data_2 $end
 $var wire 32 > cacheWrite_line_1 $end
 $var wire 32 ? io_cacheResp_bits_data $end
 $var wire 1 @ _GEN_96 $end
 $var wire 1 A _GEN_5 $end
 $var wire 3 D _GEN_75 $end
 $var wire 3 G _GEN_81 $end
 $var wire 1 J _GEN_90 $end
 $var wire 128 N _GEN_8 $end
 $var wire 32 P io_cacheReq_bits_data $end
 $var wire 1 S _GEN_84 $end
 $var wire 32 X _GEN_99 $end
 $var wire 3 Y _GEN_78 $end
 $var wire 32 [ _GEN_63 $end
 $var wire 32 _ _GEN_105 $end
 $var wire 1 d tags_dirty $end
 $var wire 32 f _GEN_66 $end
 $var wire 1 g _GEN_72 $end
 $var wire 32 i datas_1 $end
 $var wire 18 l tags_tag $end
 $var wire 128 p io_memReq_bits_data $end
 $var wire 1 u io_cacheReq_bits_wr $end
 $var wire 3 x state $end
 $var wire 32 ~ _GEN_102 $end
 $var wire 32 "! _GEN_7 $end
 $var wire 1 "$ jump2finish $end
 $var wire 1 "% valid $end
 $var wire 1 "0 _GEN_92 $end
 $var wire 1 "3 _GEN_86 $end
 $var wire 32 "4 datas_0 $end
 $var wire 3 "5 _GEN_71 $end
 $var wire 10 "7 addrReg_line $end
 $var wire 1 "8 hit $end
 $var wire 32 "9 _GEN_1 $end
 $var wire 32 "; cacheWrite_line_0 $end
 $var wire 32 "= datas_3 $end
 $var wire 1 "@ _GEN_74 $end
 $var wire 3 "B _GEN_95 $end
 $var wire 3 "C _GEN_89 $end
 $var wire 1 "D _GEN_4 $end
 $var wire 1 "F _GEN_80 $end
 $var wire 32 "G io_data_1 $end
 $var wire 1 "J io_cacheResp_valid $end
 $var wire 32 "K _GEN_101 $end
 $var wire 3 "L _GEN_83 $end
 $var wire 1 "N _GEN_77 $end
 $var wire 1 "P clock $end
 $var wire 1 "Q _GEN_35 $end
 $var wire 32 "U cacheWrite_line_3 $end
 $var wire 128 "V io_memResp_bits_data $end
 $var wire 18 "[ addrReg_tag $end
 $var wire 32 "] _GEN_65 $end
 $var wire 1 "_ cacheWrite_valid $end
 $var wire 32 "d _GEN_104 $end
 $var wire 2 "e addrReg_word $end
 $var wire 1 "i _GEN_94 $end
 $var wire 32 "j writeMemAddr $end
 $var wire 1 "n io_cacheReq_valid $end
 $var wire 1 "o io_memReq_bits_wr $end
 $var wire 1 "p io_memResp_valid $end
 $var wire 3 "x _GEN_82 $end
 $var wire 1 "z _GEN_76 $end
 $var wire 32 "} reqReg_addr $end
 $var wire 32 #! io_data_3 $end
 $var wire 1 #" writeMem $end
 $var wire 1 #% _GEN_6 $end
 $var wire 1 #) _GEN_0 $end
 $var wire 1 #* io_memReq_valid $end
 $var wire 3 #, _GEN_91 $end
 $var wire 1 #- _GEN_79 $end
 $var wire 32 #1 _GEN_64 $end
 $var wire 1 #2 _GEN_9 $end
 $var wire 3 #5 _GEN_85 $end
 $var wire 1 #8 reqReg_wr $end
 $var wire 32 #9 datas_2 $end
 $var wire 32 #: io_cacheReq_bits_addr $end
 $var wire 1 #< reset $end
 $var wire 1 #? _GEN_3 $end
 $var wire 3 #@ _GEN_73 $end
 $var wire 1 #A _GEN_88 $end
 $var wire 32 #B io_data_0 $end
 $var wire 32 #G _GEN_100 $end
 $var wire 32 #H io_memReq_bits_addr $end
 $var wire 32 #L readMemAddr $end
 $var wire 32 #O cacheWrite_line_2 $end
  $scope module datas_3 $end
    $scope module data $end
     $var wire 1 ! en $end
     $var wire 32 R data $end
     $var wire 1 "M pipeline_ren_0 $end
     $var wire 1 "b clk $end
     $var wire 10 "g pipeline_raddr_0 $end
     $var wire 10 #C addr $end
    $upscope $end
    $scope module _T_55 $end
     $var wire 1 $ valid $end
     $var wire 10 7 pipeline_addr_0 $end
     $var wire 1 I en $end
     $var wire 10 O addr $end
     $var wire 32 "< pipeline_data_0 $end
     $var wire 32 "H data $end
     $var wire 1 "R clk $end
     $var wire 1 ## pipeline_valid_0 $end
     $var wire 1 #F mask $end
    $upscope $end
    $scope module _T_54 $end
     $var wire 10 ( pipeline_addr_0 $end
     $var wire 10 - addr $end
     $var wire 1 W valid $end
     $var wire 1 o clk $end
     $var wire 32 s data $end
     $var wire 32 "6 pipeline_data_0 $end
     $var wire 1 "I pipeline_valid_0 $end
     $var wire 1 "v en $end
     $var wire 1 "{ mask $end
    $upscope $end
  $upscope $end
  $scope module datas_0 $end
    $scope module _T_55 $end
     $var wire 1 " clk $end
     $var wire 1 5 mask $end
     $var wire 10 ^ pipeline_addr_0 $end
     $var wire 10 w addr $end
     $var wire 1 "( valid $end
     $var wire 1 "S en $end
     $var wire 1 "W pipeline_valid_0 $end
     $var wire 32 "Y data $end
     $var wire 32 "k pipeline_data_0 $end
    $upscope $end
    $scope module data $end
     $var wire 1 ) clk $end
     $var wire 1 = en $end
     $var wire 1 L pipeline_ren_0 $end
     $var wire 10 "> addr $end
     $var wire 10 "a pipeline_raddr_0 $end
     $var wire 32 #' data $end
    $upscope $end
    $scope module _T_54 $end
     $var wire 1 4 en $end
     $var wire 10 B addr $end
     $var wire 10 K pipeline_addr_0 $end
     $var wire 1 } pipeline_valid_0 $end
     $var wire 32 "1 data $end
     $var wire 32 "\ pipeline_data_0 $end
     $var wire 1 "t clk $end
     $var wire 1 "y valid $end
     $var wire 1 #; mask $end
    $upscope $end
  $upscope $end
  $scope module tags_valid $end
    $scope module _T_41 $end
     $var wire 1 % mask $end
     $var wire 10 c addr $end
     $var wire 1 n pipeline_data_0 $end
     $var wire 1 q clk $end
     $var wire 1 v pipeline_valid_0 $end
     $var wire 1 "' valid $end
     $var wire 1 "O data $end
     $var wire 1 "w en $end
     $var wire 10 #3 pipeline_addr_0 $end
    $upscope $end
    $scope module tag $end
     $var wire 10 F addr $end
     $var wire 10 m pipeline_raddr_0 $end
     $var wire 1 ") data $end
     $var wire 1 "q pipeline_ren_0 $end
     $var wire 1 "r en $end
     $var wire 1 #= clk $end
    $upscope $end
  $upscope $end
  $scope module datas_2 $end
    $scope module _T_54 $end
     $var wire 1 & mask $end
     $var wire 1 E clk $end
     $var wire 1 Q pipeline_valid_0 $end
     $var wire 10 \ pipeline_addr_0 $end
     $var wire 10 j addr $end
     $var wire 32 "- pipeline_data_0 $end
     $var wire 1 "2 valid $end
     $var wire 32 "T data $end
     $var wire 1 #7 en $end
    $upscope $end
    $scope module data $end
     $var wire 32 2 data $end
     $var wire 1 { en $end
     $var wire 1 "E pipeline_ren_0 $end
     $var wire 10 "Z pipeline_raddr_0 $end
     $var wire 10 #$ addr $end
     $var wire 1 #( clk $end
    $upscope $end
    $scope module _T_55 $end
     $var wire 10 8 pipeline_addr_0 $end
     $var wire 1 : valid $end
     $var wire 1 ] mask $end
     $var wire 1 b clk $end
     $var wire 1 "# en $end
     $var wire 1 "+ pipeline_valid_0 $end
     $var wire 10 ". addr $end
     $var wire 32 ": pipeline_data_0 $end
     $var wire 32 "| data $end
    $upscope $end
  $upscope $end
  $scope module tags_tag $end
    $scope module _T_41 $end
     $var wire 1 + clk $end
     $var wire 1 H mask $end
     $var wire 18 U pipeline_data_0 $end
     $var wire 1 r pipeline_valid_0 $end
     $var wire 10 "& addr $end
     $var wire 18 "m data $end
     $var wire 10 "~ pipeline_addr_0 $end
     $var wire 1 #& valid $end
     $var wire 1 #D en $end
    $upscope $end
    $scope module tag $end
     $var wire 1 ` pipeline_ren_0 $end
     $var wire 10 t addr $end
     $var wire 1 "/ clk $end
     $var wire 18 "f data $end
     $var wire 10 #/ pipeline_raddr_0 $end
     $var wire 1 #P en $end
    $upscope $end
  $upscope $end
  $scope module datas_1 $end
    $scope module _T_54 $end
     $var wire 32 , data $end
     $var wire 10 V pipeline_addr_0 $end
     $var wire 1 ", mask $end
     $var wire 1 "? valid $end
     $var wire 32 "c pipeline_data_0 $end
     $var wire 10 "l addr $end
     $var wire 1 "u pipeline_valid_0 $end
     $var wire 1 #4 clk $end
     $var wire 1 #E en $end
    $upscope $end
    $scope module _T_55 $end
     $var wire 1 C clk $end
     $var wire 32 T data $end
     $var wire 10 e pipeline_addr_0 $end
     $var wire 1 | valid $end
     $var wire 1 "" en $end
     $var wire 32 "A pipeline_data_0 $end
     $var wire 1 "` mask $end
     $var wire 10 #> addr $end
     $var wire 1 #K pipeline_valid_0 $end
    $upscope $end
    $scope module data $end
     $var wire 1 "* pipeline_ren_0 $end
     $var wire 10 "X pipeline_raddr_0 $end
     $var wire 10 "h addr $end
     $var wire 1 #+ en $end
     $var wire 1 #0 clk $end
     $var wire 32 #N data $end
    $upscope $end
  $upscope $end
  $scope module tags_dirty $end
    $scope module tag $end
     $var wire 1 9 pipeline_ren_0 $end
     $var wire 1 Z en $end
     $var wire 10 h pipeline_raddr_0 $end
     $var wire 1 k data $end
     $var wire 1 #I clk $end
     $var wire 10 #M addr $end
    $upscope $end
    $scope module _T_41 $end
     $var wire 1 M data $end
     $var wire 1 a pipeline_data_0 $end
     $var wire 1 y clk $end
     $var wire 1 z pipeline_valid_0 $end
     $var wire 1 "^ mask $end
     $var wire 1 "s en $end
     $var wire 10 #. pipeline_addr_0 $end
     $var wire 10 #6 addr $end
     $var wire 1 #J valid $end
    $upscope $end
  $upscope $end
$upscope $end
$enddefinitions $end
$dumpvars
b000 G
b0000000000 #6
0o
0#D
0=
b00000000000000000000000000000000 "j
b00000000000000000000000000000000 "U
0"P
b00000000000000000000000000000000000000000000000000000000000000000000000000000000000000000000000000000000000000000000000000000000 p
0"v
b00000000000000000000000000000000 "4
0"r
0a
0L
0"@
1%
0"#
b00000000000000000000000000000000 "\
b00000000000000000000000000000000 "G
0z
0"n
b00000000000000000000000000000000 s
0]
0"Q
0#2
0r
0@
0+
b0000000000 ".
b00000000000000000000000000000000 #9
b0000000000 B
b0000000000 -
b000 "C
0#E
0#0
b00000000000000000000000000000000 T
b00000000000000000000000000000000 ?
0"2
b000 Y
b000 D
b000 #5
1M
0"`
0#A
b00000000000000000000000000000000 P
0:
b00000000000000000000000000000000 #H
b0000000000 #/
0`
0"?
0"*
b00000000000000000000000000000000 "c
b00000000000000000000000000000000 "1
b0000000000 j
b000 "x
b0000000000 8
0"o
0#P
b00000000000000000000000000000000 _
b0000000000 ">
b0000000000 ^
0;
b000 "B
0Z
0"N
b00000000000000000000000000000000 "6
b00000000000000000000000000000000 "!
b00000000000000000000000000000000 [
b00000000000000000000000000000000 >
0k
0"_
b0000000000 \
1"O
09
b00000000000000000000000000000000 2
b00000000000000000000000000000000 #G
b0000000000 #C
b0000000000 #.
0|
b0000000000 m
0J
0"z
0"+
b00000000000000000000000000000000 "A
b00000000000000000000000000000000 ,
0n
0"M
0'
b00000000000000000000000000000000 "T
b000000000000000000 l
b0000000000 "X
0"I
0#*
b0000000000 F
b00000000000000000000000000000000 #N
b00000000000000000000000000000000 #1
b00000000000000000000000000000000000000000000000000000000000000000000000000000000000000000000000000000000000000000000000000000000 N
0"y
b00000000000000000000000000000000 ~
0}
0"q
0#(
0#=
b00000000000000000000000000000000000000000000000000000000000000000000000000000000000000000000000000000000000000000000000000000000 "V
b0000000000 #>
b0000000000 K
0y
0*
0#-
0C
0""
b00000000000000000000000000000000 <
b0000000000 "l
b0000000000 #M
b0000000000 w
b0000000000 (
b000 .
b00000000000000000000000000000000 "d
0"J
0#+
b0000000000 V
1"^
1",
1H
0g
0"F
0#<
b00000000000000000000000000000000 6
05
0")
b0000000000 7
0)
b00 "e
b0000000000 "Z
b000 /
b0000000000 e
0W
0v
0#K
b00000000000000000000000000000000 "=
0"8
b000000000000000000 U
0!
b00000000000000000000000000000000 "k
b00000000000000000000000000000000 #L
b00000000000000000000000000000000 "9
b0000000000 "~
0"w
b0000000000 t
0{
b0000000000 "7
0Q
0"E
0#&
0I
04
0"(
b00000000000000000000000000000000 #B
b00000000000000000000000000000000 i
b000 #@
0b
b0000000000 h
0#7
0E
1&
0"$
b000 "L
0"u
b00000000000000000000000000000000 "]
b00000000000000000000000000000000 "H
b00000000000000000000000000000000 #!
0u
0"i
0#J
b00000000000000000000000000000000 "<
0q
0#F
0#)
0"3
0"
b00000000000000000000000000000000 #
b00000000000000000000000000000000 ":
b000000000000000000 "m
b0000000000 "h
1"{
b00000000000000000000000000000000 f
0"D
0"/
0#%
03
0"'
b00000000000000000000000000000000 "}
b00000000000000000000000000000000 "K
1#;
b000 #,
0"t
0"W
0##
0#8
01
0"%
b0000000000 #$
b0000000000 c
b0000000000 "&
b00000000000000000000000000000000000000000000000000000000000000000000000000000000000000000000000000000000000000000000000000000000 0
0"p
0#I
0"S
b00000000000000000000000000000000 ";
0#4
b00000000000000000000000000000000 X
b000000000000000000 "[
0S
b0000000000 "g
b0000000000 #3
b000 x
0d
b00000000000000000000000000000000 "|
0"b
b00000000000000000000000000000000 R
0"0
b00000000000000000000000000000000 "-
0"s
0#?
b00000000000000000000000000000000 #'
b000 "5
0#"
b000000000000000000 "f
b0000000000 "a
0"R
b0000000000 O
0A
0$
b00000000000000000000000000000000 #O
b00000000000000000000000000000000 "Y
b00000000000000000000000000000000 #:
$end
#0
b011 #@
1"Q
15
1#<
b011 D
1'
b011 "5
#1
1n
1"P
1"t
1C
1o
1E
1#I
1a
1b
1)
1"R
1q
1#4
1"b
1"/
1"
1y
1#=
1#(
1+
1#0
#6
1#?
13
0"t
1J
1S
1"n
1#P
0b
0"R
0#4
0y
1"i
1*
1{
0+
0#0
1u
0"P
0C
1"3
0o
1Z
0E
1#+
0#I
1=
1#A
0)
0q
1#-
1!
0"/
0"b
0"
1@
1"0
0#<
0#=
0#(
1"z
1"r
b00000000000000001010101111001101 P
#11
1"t
b101 #@
1"_
1#8
b101 "B
1"%
b00000000000000001010101111001101 6
b00000000000000001010101111001101 "Y
1"'
1b
1#4
1"S
1y
1"M
0{
1"#
1I
1#0
1`
1C
1o
0Z
1E
1#I
0=
1q
b00000000000000001010101111001101 T
1"w
1"b
1"
1"E
1#&
1"(
19
1#=
1#(
1"*
1"s
03
1g
1"$
b00000000000000001010101111001101 ";
1L
0#P
1"R
1"q
1#J
1""
1+
1"N
1"P
b101 Y
b101 D
b00000000000000001010101111001101 "|
0'
0#+
b101 "5
b00000000000000001010101111001101 [
1)
0!
1"/
1#D
1"F
b00000000000000001010101111001101 "1
0"r
b00000000000000001010101111001101 "H
1"@
#16
0u
0"P
0"t
0C
0o
0E
0"n
0#I
0b
0)
0"R
0q
0#4
0"b
0"/
0"
0y
0#=
0#(
0+
b00000000000000000000000000000000 P
0#0
#21
1"t
b001 #@
0"_
1"W
b000 "B
0S
b00000000000000001010101111001101 "<
0"'
1b
b00000000000000000000000000000000000000000000000000000000000000000000000000000000000000000000000000000000000000001010101111001101 0
1#4
0"S
1y
b101 G
0"M
1"8
0"#
0I
1A
b00000000000000001010101111001101 "d
1#0
b00000000000000001010101111001101 ":
0`
1C
1o
1E
1#I
0#A
1q
0"w
1"b
1"
0"E
0"0
0#&
1k
0"(
09
b00000000000000001010101111001101 "\
1#(
1#=
0"*
0"s
b00000000000000001010101111001101 "A
0"$
0J
b00000000000000001010101111001101 ~
0L
1"R
0"q
0"i
0#J
1z
0""
b00000000000000001010101111001101 "k
1+
b00000000000000001010101111001101 "9
b00000000000000001010101111001101 _
1"P
0"3
1v
1"J
b101 x
b00000000000000000000000000000000000000000000000000000000000000000000000000000000000000000000000000000000000000001010101111001101 p
1)
b00000000000000001010101111001101 #B
0#-
1r
1"/
0@
b101 "x
0#D
b00000000000000001010101111001101 #
b00000000000000001010101111001101 #'
1")
0"z
1#)
0"@
#26
0"P
0"t
0C
0o
0E
1"n
0#I
0b
0)
0"R
0q
0#4
0"b
0"/
0"
0y
0#=
0#(
0+
0#0
#31
13
1"t
0"W
1J
0"%
1S
1#P
1b
1"R
1#4
1y
1"i
b000 G
0z
1{
1+
1#0
1"P
1C
1"3
0v
b000 Y
1'
1o
0"J
b000 x
1E
1#+
1=
1#A
1Z
1#I
1)
1q
1#-
1!
b00000000000000001010101111001101 ?
0r
1"b
1"/
1"
1@
b000 "x
1"0
0"F
1#=
1#(
1"r
#36
0"P
0"t
0C
0o
0E
0#I
0b
0)
0"R
0q
0#4
0"b
0"/
0"
0y
0#=
0#(
0+
0#0
#41
03
1"t
0g
0#8
b101 "B
1"$
1"%
b00000000000000000000000000000000 6
b00000000000000000000000000000000 ";
b00000000000000000000000000000000 "Y
1L
0#P
1b
1"R
1#4
1"q
1y
1"M
0{
1+
1#0
1`
1"P
1C
b101 Y
b00000000000000000000000000000000 "|
0'
1o
1E
b011 "5
0#+
0=
0Z
b00000000000000000000000000000000 [
1#I
1)
1q
0#-
0!
b00000000000000000000000000000000 T
1"/
1"b
1"
1"E
0@
1"F
b00000000000000000000000000000000 "1
19
1#=
1#(
1"*
0"r
b00000000000000000000000000000000 "H
#46
0"P
0"t
0C
0o
0E
0"n
0#I
0b
0)
0"R
0q
0#4
0"b
0"/
0"
0y
0#=
0#(
0+
0#0
#51
0#?
b00000000000000000000000000000000 "A
1"t
0"$
b000 "B
0J
0"%
0S
0L
b00000000000000000000000000000000 "<
1b
1"R
b00000000000000000000000000000000000000000000000000000000000000000000000000000000000000000000000000000000000000000000000000000000 0
1#4
0"q
1y
0"i
b101 G
0"M
b00000000000000000000000000000000 "k
1+
b00000000000000000000000000000000 "9
0A
1#0
b00000000000000000000000000000000 ":
0`
1"P
1C
0"3
1'
1o
1"J
b101 x
1E
1#I
0#A
1)
1q
1"/
1"b
1"
0"E
b101 "x
0"0
0"F
09
b00000000000000000000000000000000 "\
1#(
1#=
0"*
0#)
#56
0"P
0"t
0C
0o
0E
0#I
0b
0)
0"R
0q
0#4
0"b
0"/
0"
0y
0#=
0#(
0+
0#0
#61
1"P
1"t
1C
b000 Y
1o
0"J
b000 x
1E
1#I
1b
1"R
1)
1q
1#4
1"b
1"/
1"
1y
b000 "x
b000 G
1#=
1#(
1+
1#0
#66
1#?
13
0"t
1J
1S
1"n
b00000000000000001000000000000000 #:
1#P
0b
0"R
0#4
0y
1"i
1{
0+
0#0
1u
0"P
0C
1"3
0o
1Z
0E
1#+
0#I
1=
1#A
0)
0q
1#-
1!
0"/
0"b
0"
1@
1"0
0#=
0#(
1"r
b00000000000000000101010110101010 P
#71
1"t
1#8
b001 "B
1"%
b00000000000000000101010110101010 6
b00000000000000000101010110101010 "Y
1b
1#4
1y
1"M
0{
0"8
1#0
1`
1C
1o
0Z
1E
b00000000000000001000000000000000 "}
1#I
0=
1q
b00000000000000000101010110101010 T
1"b
1"
1"E
19
1#=
1#(
1"*
03
1g
b00000000000000000101010110101010 ";
1L
0#P
1"R
1"q
b00000000000000001000000000000000 #L
1+
0"N
b000000000000000010 "m
1"P
b001 Y
b001 D
b00000000000000000101010110101010 "|
b00000000000000001000000000000000 #H
0'
0#+
b101 "5
b00000000000000000101010110101010 [
1)
0!
1"/
b000000000000000010 "[
b00000000000000000101010110101010 "1
1"z
0"r
b00000000000000000101010110101010 "H
#76
0u
0"P
0"t
0C
0o
0E
0"n
0#I
b00000000000000000000000000000000 #:
0b
0)
0"R
0q
0#4
0"b
0"/
0"
0y
0#=
0#(
0+
b00000000000000000000000000000000 P
0#0
#81
1#"
b00000000000000000101010110101010 "A
1"t
b010 "B
b001 "C
0L
b00000000000000000101010110101010 "<
1"o
b001 /
1b
1"R
b00000000000000000000000000000000000000000000000000000000000000000000000000000000000000000000000000000000000000000101010110101010 0
1#4
0"q
1y
b00000000000000001000000000000000 "!
b001 #5
b001 G
0"M
b00000000000000000101010110101010 "k
1+
b00000000000000000101010110101010 "9
1A
1#0
b00000000000000000101010110101010 ":
0`
1"P
1C
b010 .
1#*
b00000000000000000000000000000000 #H
1o
1E
b001 x
1#I
b001 #,
1)
1q
b001 "L
1"/
1"b
1"
b000000000000000010 U
0"E
b001 "x
09
b00000000000000000101010110101010 "\
1#(
1#=
0"*
1#)
#86
0"P
0"t
0C
0o
0E
b00000000000000001000000000000000 #:
0#I
1"n
0b
0)
0"R
0q
0#4
0"b
0"/
0"
0y
0#=
0#(
0+
0#0
#91
1"t
b010 "C
b010 /
1b
1"R
1#4
1y
b010 #5
b010 G
1+
1#0
1"P
1C
0#*
1o
1E
b010 x
1#I
b010 #,
1)
1q
b010 "L
1"/
1"b
1"
b010 "x
1#=
1#(
#96
0"P
0"t
0C
b011 .
b011 "B
0o
0E
0#I
b011 #,
0b
0)
0"R
0q
1"p
0#4
0"b
0"/
0"
0y
b101 "x
b011 G
0#=
0#(
0+
0#0
#101
0#"
1"t
b100 "B
b100 "C
0"o
b011 /
1b
1"R
1#4
11
1y
b011 #5
1+
1#0
1"P
1C
b100 .
1#*
b00000000000000001000000000000000 #H
1o
1E
b011 x
1#I
b100 #,
1)
1q
b011 "L
1#%
1"/
1"b
1"
1#=
1#(
#106
0"P
0"t
0C
0o
0E
0#I
0b
0)
0"R
0q
0"p
0#4
0"b
0"/
0"
0y
b011 "x
0#=
0#(
0+
0#0
#111
1"t
1"_
14
1"v
1"'
b100 /
1b
1"R
1#4
01
1y
b100 #5
1#J
1"?
b100 G
1#7
1+
1#E
1#0
1"2
1"P
1C
0"Q
0#*
1o
1E
b100 x
1#I
1)
1q
b100 "L
0#%
1"/
1"b
1"w
1"
1#&
b100 "x
1#D
1"y
1#=
1#(
1W
1"s
#116
b01001111111000100100000111100001 f
0"t
b101 "B
b101 "C
b00011110111001000000011100111001 #O
b101 /
0b
0"R
1"p
0#4
0y
b00011110111001000000011100111001 "T
b011 G
b01001111111000100100000111100001 "U
b01001111111000100100000111100001000111101110010000000111001110010011001010001100100101001110101001111111000110100111100110000001 "V
0+
b00110010100011001001010011101010 ,
0#0
0"P
b00110010100011001001010011101010 #1
b01111111000110100111100110000001 X
0C
b101 .
b01111111000110100111100110000001 #G
0o
0E
0#I
b01111111000110100111100110000001 "K
b101 #,
b00110010100011001001010011101010 >
0)
0q
0"/
0"b
0"
b01001111111000100100000111100001 s
b101 "x
0#=
0#(
b00011110111001000000011100111001 "]
#121
1Q
b00011110111001000000011100111001 <
1"t
0"_
04
b000 "B
1}
0S
0"v
0"'
1b
b01001111111000100100000111100001000111101110010000000111001110010011001010001100100101001110101000000000000000000101010110101010 0
1#4
b01001111111000100100000111100001 "6
1y
b00011110111001000000011100111001 2
b00000000000000001000000000000000 "j
1"8
b00000000000000000101010110101010 "d
1#0
0#E
0"2
1C
b000 .
b000000000000000010 "f
1"Q
1"I
1o
1E
1#I
0#A
b000 #,
1q
b01111111000110100111100110000001 ?
0"w
1"b
1"
0#&
0"0
0"y
1#=
1#(
b00110010100011001001010011101010 "G
0"s
b01001111111000100100000111100001 R
1"u
0J
b000 "C
b00000000000000000101010110101010 ~
b000 /
1"R
b01001111111000100100000111100001000111101110010000000111001110010011001010001100100101001110101001111111000110100111100110000001 N
11
0"i
b000 #5
0#J
0"?
1z
0#7
1+
1"N
b00000000000000000101010110101010 _
b00110010100011001001010011101010 #N
1"P
0"3
1v
b101 Y
b101 D
1"J
b101 x
b00011110111001000000011100111001 "-
b01001111111000100100000111100001000111101110010000000111001110010011001010001100100101001110101000000000000000000101010110101010 p
1)
b00000000000000000101010110101010 #B
b000 "L
0#-
1#%
1r
1"/
0@
b00110010100011001001010011101010 "c
0#D
b00000000000000000101010110101010 #
b00000000000000000101010110101010 #'
1"F
0W
0"z
b01001111111000100100000111100001 #!
#126
b00000000000000000000000000000000 f
0"t
b00000000000000000000000000000000 #O
0b
0"R
0"p
0#4
0y
b00000000000000000000000000000000 "T
b101 G
b00000000000000000000000000000000 "U
b00000000000000000000000000000000000000000000000000000000000000000000000000000000000000000000000000000000000000000000000000000000 "V
0+
b00000000000000000000000000000000 ,
0#0
0"P
b00000000000000000000000000000000 #1
b00000000000000000000000000000000 X
0C
b00000000000000000000000000000000 #G
0o
0E
0#I
b00000000000000000000000000000000 "K
b00000000000000000000000000000000 >
0)
0q
0"/
0"b
0"
b00000000000000000000000000000000 s
0#=
0#(
b00000000000000000000000000000000 "]
#131
0Q
1"t
0}
0"%
1S
1b
b00000000000000000000000000000000000000000000000000000000000000000000000000000000000000000000000000000000000000000101010110101010 0
1#4
b00000000000000000000000000000000 "6
1y
b000 G
1{
1#0
1C
0"I
1o
1Z
1E
1#I
1=
1#A
1q
b00000000000000000101010110101010 ?
1"b
1"
1"0
1#=
1#(
13
0"u
1J
1#P
1"R
b00000000000000000000000000000000000000000000000000000000000000000000000000000000000000000000000000000000000000000000000000000000 N
01
1"i
0z
1+
1"P
1"3
0v
b000 Y
1'
0"J
b000 x
1#+
b00000000000000000000000000000000 "-
1)
1#-
1!
0#%
0r
1"/
1@
b000 "x
b00000000000000000000000000000000 "c
0"F
1"r
#136
0"P
0"t
0C
0o
0E
0#I
0b
0)
0"R
0q
0#4
0"b
0"/
0"
0y
0#=
0#(
0+
0#0
#141
03
1"t
0g
0#8
b101 "B
1"$
1"%
b00000000000000000000000000000000 6
b00000000000000000000000000000000 ";
b00000000000000000000000000000000 "Y
1L
0#P
1b
1"R
1#4
1"q
1y
1"M
0{
1+
1#0
1`
1"P
1C
b101 Y
b00000000000000000000000000000000 "|
0'
1o
1E
b011 "5
0#+
0=
0Z
b00000000000000000000000000000000 [
1#I
1)
1q
0#-
0!
b00000000000000000000000000000000 T
1"/
1"b
1"
1"E
0@
1"F
b00000000000000000000000000000000 "1
19
1#=
1#(
1"*
0"r
b00000000000000000000000000000000 "H
#146
0"P
0"t
0C
0o
0E
0"n
0#I
b00000000000000000000000000000000 #:
0b
0)
0"R
0q
0#4
0"b
0"/
0"
0y
0#=
0#(
0+
0#0
#151
0#?
b00000000000000000000000000000000 "A
1"t
0"$
b000 "B
0J
0"%
0S
0L
b00000000000000000000000000000000 "<
1b
1"R
b00000000000000000000000000000000000000000000000000000000000000000000000000000000000000000000000000000000000000000000000000000000 0
1#4
0"q
1y
0"i
b101 G
0"M
b00000000000000000000000000000000 "k
1+
b00000000000000000000000000000000 "9
0A
1#0
b00000000000000000000000000000000 ":
0`
1"P
1C
0"3
1'
1o
1"J
b101 x
1E
1#I
0#A
1)
1q
1"/
1"b
1"
0"E
b101 "x
0"0
0"F
09
b00000000000000000000000000000000 "\
1#(
1#=
0"*
0#)
#156
0"P
0"t
0C
0o
0E
0#I
0b
0)
0"R
0q
0#4
0"b
0"/
0"
0y
0#=
0#(
0+
0#0
#161
1"P
1"t
1C
b000 Y
1o
0"J
b000 x
1E
1#I
1b
1"R
1)
1q
1#4
1"b
1"/
1"
1y
b000 "x
b000 G
1#=
1#(
1+
1#0
#166
1#?
13
0"t
1J
1S
b0000000101 #$
1"n
b00000000000000000000000001010100 #:
1#P
0b
0"R
0#4
b0000000101 ">
b0000000101 F
0y
1"i
1{
0+
b0000000101 #M
b0000000101 t
0#0
0"P
0C
1"3
0o
1Z
0E
1#+
0#I
b0000000101 "h
1=
1#A
0)
0q
1#-
1!
0"/
0"b
b0000000101 #C
0"
1@
1"0
0#=
0#(
1"r
#171
b00000000000000000000000000000000 <
1"t
b011 #@
b011 "B
1"%
b0000000101 h
b0000000101 j
1b
1#4
1y
b00000000000000000000000000000000 2
b00000000000000000000000001010000 "j
b0000000101 #6
1"M
0{
0"8
b0000000101 "l
b00000000000000000000000000000000 "d
1#0
1`
1C
b000000000000000000 "f
b0000000101 w
1o
0Z
1E
b00000000000000000000000001010100 "}
1#I
0=
1"`
b0000000101 ".
1q
1"b
1"
1"E
0k
19
1#=
1#(
b00000000000000000000000000000000 "G
1"*
b0000000101 m
03
b00000000000000000000000000000000 R
05
b0000000101 "X
b00000000000000000000000000000000 ~
b0000000101 "&
1L
0#P
b0000000101 "Z
1"R
b0000000101 c
1"q
b0000000101 "7
b00000000000000000000000001010000 #L
1+
b0000000101 #/
0"N
b00000000000000000000000000000000 _
b00000000000000000000000000000000 #N
b0000000101 B
b0000000101 -
b01 "e
1"P
b000000000000000000 "m
b011 Y
b011 D
b0000000101 "g
b00000000000000000000000001010000 #H
0'
0#+
b00000000000000000000000000000000000000000000000000000000000000000000000000000000000000000000000000000000000000000000000000000000 p
1)
b0000000101 "a
b00000000000000000000000000000000 #B
0!
1"/
b00000000000000000000000000000000 #
b000000000000000000 "[
b00000000000000000000000000000000 #'
0")
1"z
b0000000101 O
0"r
b0000000101 #>
b00000000000000000000000000000000 #!
#176
0"t
b0000000000 #$
0"n
b00000000000000000000000000000000 #:
0b
0"R
0#4
b0000000000 ">
b0000000000 F
0y
0+
b0000000000 #M
b0000000000 t
0#0
0"P
0C
0o
0E
0#I
b0000000000 "h
0)
0q
0"/
0"b
b0000000000 #C
0"
0#=
0#(
