simWorkspace/ALU/test.vcd
$version Generated by VerilatedVcd $end
$date Tue May 05 22:31:45 2020
 $end
$timescale   1ns $end

 $scope module TOP $end
  $var wire 32 ; io_aluOut [31:0] $end
  $var wire 32 + io_op1 [31:0] $end
  $var wire 32 3 io_op2 [31:0] $end
  $var wire  4 # io_opcode [3:0] $end
  $scope module ALU $end
   $var wire 32 ; io_aluOut [31:0] $end
   $var wire 32 + io_op1 [31:0] $end
   $var wire 32 3 io_op2 [31:0] $end
   $var wire  4 # io_opcode [3:0] $end
  $upscope $end
 $upscope $end
$enddefinitions $end


#0
b0001 #
b00000000000000000000001000110000 +
b00000000000000000000000100010100 3
b00000000000000000000001100110100 ;
#1
b0110 #
b00000000000000000000000000100100 +
b00000000000000000000000101011010 3
b11111111111111111111111011001010 ;
#2
b0011 #
b00000000000000000000000010110111 +
b00000000000000000000000010001101 3
b00000000000000000000000000000000 ;
#3
b00000000000000000000000001101010 +
b00000000000000000000000010101100 3
#4
b00000000000000000000001000010100 +
b00000000000000000000001011100010 3
#5
b0001 #
b00000000000000000000001000100111 +
b00000000000000000000001101111001 3
b00000000000000000000001101111111 ;
#6
b0000 #
b00000000000000000000000100011011 +
b00000000000000000000001011101111 3
b00000000000000000000000000001011 ;
#7
b0100 #
b00000000000000000000001011111101 +
b00000000000000000000001101101110 3
b00000000000000000000000000000000 ;
#8
b00000000000000000000001001001011 +
b00000000000000000000001010010011 3
#9
b0010 #
b00000000000000000000000111111000 +
b00000000000000000000001111011011 3
b00000000000000000000010111010011 ;
#10
b0110 #
b00000000000000000000001001100101 +
b00000000000000000000001101101001 3
b11111111111111111111111011111100 ;
#11
b0101 #
b00000000000000000000000101100010 +
b00000000000000000000000000001100 3
b00000000000000000000000101101110 ;
#12
b0110 #
b00000000000000000000000111100111 +
b00000000000000000000001101110110 3
b11111111111111111111111001110001 ;
#13
b0000 #
b00000000000000000000001010001111 +
b00000000000000000000001110011101 3
b00000000000000000000001010001101 ;
#14
b0100 #
b00000000000000000000001001101011 +
b00000000000000000000001000001010 3
b00000000000000000000000000000000 ;
#15
b0001 #
b00000000000000000000000010000110 +
b00000000000000000000000000111111 3
b00000000000000000000000010111111 ;
#16
b0100 #
b00000000000000000000001101111000 +
b00000000000000000000001010110110 3
b00000000000000000000000000000000 ;
#17
b0011 #
b00000000000000000000001101011110 +
b00000000000000000000001000101110 3
#18
b0001 #
b00000000000000000000000100001000 +
b00000000000000000000001100011011 3
b00000000000000000000001100011011 ;
#19
b0000 #
b00000000000000000000001000111011 +
b00000000000000000000001000011010 3
b00000000000000000000001000011010 ;
