simWorkspace/FetchFifo/test.vcd
$version Generated by VerilatedVcd $end
$date Sun Jun 07 21:45:20 2020
 $end
$timescale   1ns $end

 $scope module TOP $end
  $var wire  1 }! clk $end
  $var wire  1 5! io_clear $end
  $var wire 32 M! io_dataIn_payload [31:0] $end
  $var wire  1 E! io_dataIn_ready $end
  $var wire  1 =! io_dataIn_valid $end
  $var wire 32 e! io_dataOut_payload [31:0] $end
  $var wire  1 ]! io_dataOut_ready $end
  $var wire  1 U! io_dataOut_valid $end
  $var wire 32 m! io_pcIn [31:0] $end
  $var wire 32 u! io_pcOut [31:0] $end
  $var wire  1 '" reset $end
  $scope module FetchFifo $end
   $var wire  1 C aligned_is_compressed $end
   $var wire  1 }! clk $end
   $var wire  3 c entry_en [2:0] $end
   $var wire  1 5! io_clear $end
   $var wire 32 M! io_dataIn_payload [31:0] $end
   $var wire  1 E! io_dataIn_ready $end
   $var wire  1 =! io_dataIn_valid $end
   $var wire 32 e! io_dataOut_payload [31:0] $end
   $var wire  1 ]! io_dataOut_ready $end
   $var wire  1 U! io_dataOut_valid $end
   $var wire 32 m! io_pcIn [31:0] $end
   $var wire 32 u! io_pcOut [31:0] $end
   $var wire  3 # lowest_free_entry [2:0] $end
   $var wire 31 %! pc [30:0] $end
   $var wire  1 ?" pc_en $end
   $var wire  3 G" pc_incr [2:0] $end
   $var wire  1 K pop_fifo $end
   $var wire 32 + rdata [31:0] $end
   $var wire 32 k rdata_q_0 [31:0] $end
   $var wire 32 s rdata_q_1 [31:0] $end
   $var wire 32 { rdata_q_2 [31:0] $end
   $var wire 32 /" rdata_unaligned [31:0] $end
   $var wire  1 '" reset $end
   $var wire  1 ; unaligned_is_compressed $end
   $var wire  1 3 valid $end
   $var wire  3 O" valid_d [2:0] $end
   $var wire  3 [ valid_popped [2:0] $end
   $var wire  3 S valid_pushed [2:0] $end
   $var wire  3 -! valid_q [2:0] $end
   $var wire  1 7" valid_unaligned $end
  $upscope $end
 $upscope $end
$enddefinitions $end


#0
b010 #
b00000000000000000000000000000000 +
13
1;
1C
0K
b101 S
b101 [
b000 c
b00000000000000000000000000000000 k
b00000000000000000000000000000000 s
b00000000000000000000000000000000 {
b0000000000000000000000000000000 %!
b101 -!
15!
0=!
1E!
b01111011001111100100100101000001 M!
1U!
1]!
b00000000000000000000000000000000 e!
b00010010110101100011011001001010 m!
b00000000000000000000000000000000 u!
0}!
1'"
b01001001010000010000000000000000 /"
07"
1?"
b010 G"
b000 O"
#160
0'"
#170
b001 #
b01111011001111100100100101000001 +
03
b000 S
b000 [
b0001001011010110001101100100101 %!
b000 -!
0U!
b01001001010000010111101100111110 e!
b00001110000000000000000000000000 m!
b00010010110101100011011001001010 u!
1}!
b01001001010000010111101100111110 /"
#175
0}!
#180
b0000111000000000000000000000000 %!
05!
b01111011001111100100100101000001 e!
b00001110000000000000000000000000 u!
1}!
0?"
#185
0}!
#190
b00000001000111110110010000111111 +
13
0;
0C
1K
b001 S
b100 [
1=!
b00000001000111110110010000111111 M!
1U!
b00000001000111110110010000111111 e!
b00000000000000000000000000000000 m!
1}!
b01100100001111110000000100011111 /"
1?"
b100 G"
b100 O"
#195
0}!
#200
03
0K
b100 S
b0000111000000000000000000000100 %!
b100 -!
0=!
0U!
b00001110000000000000000000001000 u!
1}!
0?"
#205
0}!
#210
b00000001110000001010110010110011 +
13
1;
1K
b101 S
b110 [
b010 c
1=!
b00000001110000001010110010110011 M!
1U!
b00000001110000001010110010110011 e!
b00000000000000000000000000000001 m!
1}!
b10101100101100110000000111000000 /"
1?"
b110 O"
#215
0}!
#220
03
0K
b110 S
b000 c
b0000111000000000000000000001000 %!
b110 -!
0=!
0E!
0U!
b00001110000000000000000000010000 u!
1}!
b00000000000000000000000111000000 /"
17"
0?"
#225
0}!
#230
b00001100011010110011110011110010 +
13
0;
1C
b111 S
b111 [
b001 c
1=!
b00001100011010110011110011110010 M!
1U!
b00001100011010110011110011110010 e!
b00000000000000000000000000000010 m!
1}!
b00000000000000000000110001101011 /"
1?"
b010 G"
b111 O"
#235
0}!
#240
b000 #
b00000000000000000000000000000000 +
1;
b000 c
b0000111000000000000000000001010 %!
b111 -!
0=!
b00000000000000000000000000000000 e!
b00001110000000000000000000010100 u!
1}!
b00000000000000000000000000000000 /"
#245
0}!
#250
b0000111000000000000000000001100 %!
1=!
b00000101010010011111011010111000 M!
b00000000000000000000000000000011 m!
b00001110000000000000000000011000 u!
1}!
#255
0}!
#260
b0000111000000000000000000001110 %!
0=!
b00001110000000000000000000011100 u!
1}!
